Precinct,Ballot type,Registered,Ballots Cast,James ''Jim'' DeVoursney,Woodrow L. Hay,Mack McCray,Over Votes,Under Votes
3188,TC-Absentee,1036,31,24,2,5,,
3188,TC-Early Voting,1036,0,,,,,
3188,TC-Early Voting ADA,1036,0,,,,,
3188,TC-Precinct,1036,63,46,4,13,,
3188,TC-Precinct ADA,1036,0,,,,,
3188,TC-Provisional,1036,0,,,,,
3188,Total,1036,94,70,6,18,,
3190,TC-Absentee,628,5,1,2,2,,
3190,TC-Early Voting,628,0,,,,,
3190,TC-Early Voting ADA,628,0,,,,,
3190,TC-Precinct,628,2,,2,,,
3190,TC-Precinct ADA,628,0,,,,,
3190,TC-Provisional,628,0,,,,,
3190,Total,628,7,1,4,2,,
4024,TC-Absentee,1361,61,52,4,5,,
4024,TC-Early Voting,1361,0,,,,,
4024,TC-Early Voting ADA,1361,0,,,,,
4024,TC-Precinct,1361,229,200,6,22,,1
4024,TC-Precinct ADA,1361,0,,,,,
4024,TC-Provisional,1361,0,,,,,
4024,Total,1361,290,252,10,27,,1
7178,TC-Absentee,2713,92,40,13,39,,
7178,TC-Early Voting,2713,0,,,,,
7178,TC-Early Voting ADA,2713,0,,,,,
7178,TC-Precinct,2713,142,74,20,48,,
7178,TC-Precinct ADA,2713,0,,,,,
7178,TC-Provisional,2713,0,,,,,
7178,Total,2713,234,114,33,87,,
7180,TC-Absentee,3099,95,11,21,63,,
7180,TC-Early Voting,3099,0,,,,,
7180,TC-Early Voting ADA,3099,0,,,,,
7180,TC-Precinct,3099,227,15,49,163,,
7180,TC-Precinct ADA,3099,0,,,,,
7180,TC-Provisional,3099,0,,,,,
7180,Total,3099,322,26,70,226,,
7182,TC-Absentee,1725,72,5,10,57,,
7182,TC-Early Voting,1725,0,,,,,
7182,TC-Early Voting ADA,1725,0,,,,,
7182,TC-Precinct,1725,223,7,53,163,,
7182,TC-Precinct ADA,1725,0,,,,,
7182,TC-Provisional,1725,1,,1,,,
7182,Total,1725,296,12,64,220,,
7184,TC-Absentee,5,0,,,,,
7184,TC-Early Voting,5,0,,,,,
7184,TC-Early Voting ADA,5,0,,,,,
7184,TC-Precinct,5,0,,,,,
7184,TC-Precinct ADA,5,0,,,,,
7184,TC-Provisional,5,0,,,,,
7184,Total,5,0,,,,,
