Precinct,Ballot type,Registered,Ballots Cast,Shirley Johnson,Josh Smith,Over Votes,Under Votes
4058,TC-Absentee,148,10,6,4,,
4058,TC-Early Voting,148,0,,,,
4058,TC-Early Voting ADA,148,0,,,,
4058,TC-Precinct,148,26,10,15,,1
4058,TC-Precinct ADA,148,0,,,,
4058,TC-Provisional,148,0,,,,
4058,Total,148,36,16,19,,1
4074,TC-Absentee,1001,48,23,25,,
4074,TC-Early Voting,1001,0,,,,
4074,TC-Early Voting ADA,1001,0,,,,
4074,TC-Precinct,1001,87,46,36,,5
4074,TC-Precinct ADA,1001,0,,,,
4074,TC-Provisional,1001,0,,,,
4074,Total,1001,135,69,61,,5
4076,TC-Absentee,1162,28,18,9,,1
4076,TC-Early Voting,1162,0,,,,
4076,TC-Early Voting ADA,1162,0,,,,
4076,TC-Precinct,1162,98,59,34,,5
4076,TC-Precinct ADA,1162,0,,,,
4076,TC-Provisional,1162,1,,,,1
4076,Total,1162,127,77,43,,7
4086,TC-Absentee,1272,41,29,11,,1
4086,TC-Early Voting,1272,0,,,,
4086,TC-Early Voting ADA,1272,0,,,,
4086,TC-Precinct,1272,104,65,38,,1
4086,TC-Precinct ADA,1272,0,,,,
4086,TC-Provisional,1272,0,,,,
4086,Total,1272,145,94,49,,2
4088,TC-Absentee,1779,187,104,80,,3
4088,TC-Early Voting,1779,0,,,,
4088,TC-Early Voting ADA,1779,0,,,,
4088,TC-Precinct,1779,144,88,47,,9
4088,TC-Precinct ADA,1779,0,,,,
4088,TC-Provisional,1779,1,,1,,
4088,Total,1779,332,192,128,,12
4090,TC-Absentee,610,14,7,7,,
4090,TC-Early Voting,610,0,,,,
4090,TC-Early Voting ADA,610,0,,,,
4090,TC-Precinct,610,105,64,41,,
4090,TC-Precinct ADA,610,0,,,,
4090,TC-Provisional,610,0,,,,
4090,Total,610,119,71,48,,
4092,TC-Absentee,0,0,,,,
4092,TC-Early Voting,0,0,,,,
4092,TC-Early Voting ADA,0,0,,,,
4092,TC-Precinct,0,0,,,,
4092,TC-Precinct ADA,0,0,,,,
4092,TC-Provisional,0,0,,,,
4092,Total,0,0,,,,
4094,TC-Absentee,1857,121,79,39,,3
4094,TC-Early Voting,1857,0,,,,
4094,TC-Early Voting ADA,1857,0,,,,
4094,TC-Precinct,1857,294,193,97,,4
4094,TC-Precinct ADA,1857,0,,,,
4094,TC-Provisional,1857,2,1,1,,
4094,Total,1857,417,273,137,,7
4096,TC-Absentee,770,27,13,7,,7
4096,TC-Early Voting,770,0,,,,
4096,TC-Early Voting ADA,770,0,,,,
4096,TC-Precinct,770,62,29,14,,19
4096,TC-Precinct ADA,770,0,,,,
4096,TC-Provisional,770,0,,,,
4096,Total,770,89,42,21,,26
4098,TC-Absentee,2316,168,100,61,1,6
4098,TC-Early Voting,2316,0,,,,
4098,TC-Early Voting ADA,2316,0,,,,
4098,TC-Precinct,2316,90,65,24,,1
4098,TC-Precinct ADA,2316,0,,,,
4098,TC-Provisional,2316,0,,,,
4098,Total,2316,258,165,85,1,7
4102,TC-Absentee,1382,88,34,48,,6
4102,TC-Early Voting,1382,0,,,,
4102,TC-Early Voting ADA,1382,0,,,,
4102,TC-Precinct,1382,271,141,124,,6
4102,TC-Precinct ADA,1382,0,,,,
4102,TC-Provisional,1382,1,1,,,
4102,Total,1382,360,176,172,,12
4104,TC-Absentee,1874,130,57,69,,4
4104,TC-Early Voting,1874,0,,,,
4104,TC-Early Voting ADA,1874,0,,,,
4104,TC-Precinct,1874,107,76,30,,1
4104,TC-Precinct ADA,1874,0,,,,
4104,TC-Provisional,1874,0,,,,
4104,Total,1874,237,133,99,,5
4106,TC-Absentee,1109,68,40,27,,1
4106,TC-Early Voting,1109,0,,,,
4106,TC-Early Voting ADA,1109,0,,,,
4106,TC-Precinct,1109,95,71,23,,1
4106,TC-Precinct ADA,1109,0,,,,
4106,TC-Provisional,1109,0,,,,
4106,Total,1109,163,111,50,,2
4108,TC-Absentee,1274,48,28,18,,2
4108,TC-Early Voting,1274,0,,,,
4108,TC-Early Voting ADA,1274,0,,,,
4108,TC-Precinct,1274,121,70,48,,3
4108,TC-Precinct ADA,1274,0,,,,
4108,TC-Provisional,1274,0,,,,
4108,Total,1274,169,98,66,,5
4110,TC-Absentee,1163,107,58,42,,7
4110,TC-Early Voting,1163,0,,,,
4110,TC-Early Voting ADA,1163,0,,,,
4110,TC-Precinct,1163,151,70,75,,6
4110,TC-Precinct ADA,1163,0,,,,
4110,TC-Provisional,1163,0,,,,
4110,Total,1163,258,128,117,,13
4112,TC-Absentee,1905,185,91,91,,3
4112,TC-Early Voting,1905,0,,,,
4112,TC-Early Voting ADA,1905,0,,,,
4112,TC-Precinct,1905,346,181,160,,5
4112,TC-Precinct ADA,1905,0,,,,
4112,TC-Provisional,1905,2,2,,,
4112,Total,1905,533,274,251,,8
4114,TC-Absentee,2056,103,64,36,,3
4114,TC-Early Voting,2056,0,,,,
4114,TC-Early Voting ADA,2056,0,,,,
4114,TC-Precinct,2056,90,56,33,,1
4114,TC-Precinct ADA,2056,0,,,,
4114,TC-Provisional,2056,0,,,,
4114,Total,2056,193,120,69,,4
4118,TC-Absentee,1675,45,35,8,,2
4118,TC-Early Voting,1675,0,,,,
4118,TC-Early Voting ADA,1675,0,,,,
4118,TC-Precinct,1675,114,81,28,,5
4118,TC-Precinct ADA,1675,0,,,,
4118,TC-Provisional,1675,1,1,,,
4118,Total,1675,160,117,36,,7
4120,TC-Absentee,1086,43,31,12,,
4120,TC-Early Voting,1086,0,,,,
4120,TC-Early Voting ADA,1086,0,,,,
4120,TC-Precinct,1086,41,27,14,,
4120,TC-Precinct ADA,1086,0,,,,
4120,TC-Provisional,1086,0,,,,
4120,Total,1086,84,58,26,,
4122,TC-Absentee,1669,39,18,18,,3
4122,TC-Early Voting,1669,0,,,,
4122,TC-Early Voting ADA,1669,0,,,,
4122,TC-Precinct,1669,163,83,59,,21
4122,TC-Precinct ADA,1669,0,,,,
4122,TC-Provisional,1669,0,,,,
4122,Total,1669,202,101,77,,24
4124,TC-Absentee,1886,39,25,13,,1
4124,TC-Early Voting,1886,0,,,,
4124,TC-Early Voting ADA,1886,0,,,,
4124,TC-Precinct,1886,94,55,33,,6
4124,TC-Precinct ADA,1886,0,,,,
4124,TC-Provisional,1886,2,1,1,,
4124,Total,1886,135,81,47,,7
4126,TC-Absentee,1957,160,82,74,,4
4126,TC-Early Voting,1957,0,,,,
4126,TC-Early Voting ADA,1957,0,,,,
4126,TC-Precinct,1957,151,87,61,,3
4126,TC-Precinct ADA,1957,0,,,,
4126,TC-Provisional,1957,0,,,,
4126,Total,1957,311,169,135,,7
5086,TC-Absentee,77,4,3,,,1
5086,TC-Early Voting,77,0,,,,
5086,TC-Early Voting ADA,77,0,,,,
5086,TC-Precinct,77,0,,,,
5086,TC-Precinct ADA,77,0,,,,
5086,TC-Provisional,77,0,,,,
5086,Total,77,4,3,,,1
5088,TC-Absentee,466,4,3,1,,
5088,TC-Early Voting,466,0,,,,
5088,TC-Early Voting ADA,466,0,,,,
5088,TC-Precinct,466,4,3,1,,
5088,TC-Precinct ADA,466,0,,,,
5088,TC-Provisional,466,0,,,,
5088,Total,466,8,6,2,,
5120,TC-Absentee,18,0,,,,
5120,TC-Early Voting,18,0,,,,
5120,TC-Early Voting ADA,18,0,,,,
5120,TC-Precinct,18,0,,,,
5120,TC-Precinct ADA,18,0,,,,
5120,TC-Provisional,18,0,,,,
5120,Total,18,0,,,,
7194,TC-Absentee,1444,40,27,10,,3
7194,TC-Early Voting,1444,0,,,,
7194,TC-Early Voting ADA,1444,0,,,,
7194,TC-Precinct,1444,146,87,55,,4
7194,TC-Precinct ADA,1444,0,,,,
7194,TC-Provisional,1444,0,,,,
7194,Total,1444,186,114,65,,7
7196,TC-Absentee,2234,116,66,32,,18
7196,TC-Early Voting,2234,0,,,,
7196,TC-Early Voting ADA,2234,0,,,,
7196,TC-Precinct,2234,148,80,43,,25
7196,TC-Precinct ADA,2234,0,,,,
7196,TC-Provisional,2234,0,,,,
7196,Total,2234,264,146,75,,43
7198,TC-Absentee,94,7,6,1,,
7198,TC-Early Voting,94,0,,,,
7198,TC-Early Voting ADA,94,0,,,,
7198,TC-Precinct,94,0,,,,
7198,TC-Precinct ADA,94,0,,,,
7198,TC-Provisional,94,0,,,,
7198,Total,94,7,6,1,,
7200,TC-Absentee,1763,147,111,32,1,3
7200,TC-Early Voting,1763,0,,,,
7200,TC-Early Voting ADA,1763,0,,,,
7200,TC-Precinct,1763,220,183,27,,10
7200,TC-Precinct ADA,1763,0,,,,
7200,TC-Provisional,1763,0,,,,
7200,Total,1763,367,294,59,1,13
7202,TC-Absentee,1328,57,25,23,,9
7202,TC-Early Voting,1328,0,,,,
7202,TC-Early Voting ADA,1328,0,,,,
7202,TC-Precinct,1328,136,85,42,,9
7202,TC-Precinct ADA,1328,0,,,,
7202,TC-Provisional,1328,0,,,,
7202,Total,1328,193,110,65,,18
7204,TC-Absentee,176,8,2,6,,
7204,TC-Early Voting,176,0,,,,
7204,TC-Early Voting ADA,176,0,,,,
7204,TC-Precinct,176,14,11,3,,
7204,TC-Precinct ADA,176,0,,,,
7204,TC-Provisional,176,0,,,,
7204,Total,176,22,13,9,,
7206,TC-Absentee,173,6,3,2,,1
7206,TC-Early Voting,173,0,,,,
7206,TC-Early Voting ADA,173,0,,,,
7206,TC-Precinct,173,15,10,5,,
7206,TC-Precinct ADA,173,0,,,,
7206,TC-Provisional,173,0,,,,
7206,Total,173,21,13,7,,1
7208,TC-Absentee,1415,60,46,7,,7
7208,TC-Early Voting,1415,0,,,,
7208,TC-Early Voting ADA,1415,0,,,,
7208,TC-Precinct,1415,116,73,25,,18
7208,TC-Precinct ADA,1415,0,,,,
7208,TC-Provisional,1415,0,,,,
7208,Total,1415,176,119,32,,25
7210,TC-Absentee,2155,126,90,30,2,4
7210,TC-Early Voting,2155,0,,,,
7210,TC-Early Voting ADA,2155,0,,,,
7210,TC-Precinct,2155,158,113,22,3,20
7210,TC-Precinct ADA,2155,0,,,,
7210,TC-Provisional,2155,0,,,,
7210,Total,2155,284,203,52,5,24
7212,TC-Absentee,2122,78,55,21,,2
7212,TC-Early Voting,2122,0,,,,
7212,TC-Early Voting ADA,2122,0,,,,
7212,TC-Precinct,2122,158,115,25,,18
7212,TC-Precinct ADA,2122,0,,,,
7212,TC-Provisional,2122,0,,,,
7212,Total,2122,236,170,46,,20
7214,TC-Absentee,1733,72,37,23,,12
7214,TC-Early Voting,1733,0,,,,
7214,TC-Early Voting ADA,1733,0,,,,
7214,TC-Precinct,1733,82,50,17,,15
7214,TC-Precinct ADA,1733,0,,,,
7214,TC-Provisional,1733,0,,,,
7214,Total,1733,154,87,40,,27
