Precinct,Ballot type,Registered,Ballots Cast,Kevin Easton,Rachelle Litt,Joseph R. Russo,George A. Wicker,Over Votes,Under Votes
1174,TC-Absentee,0,0,,,,,,
1174,TC-Early Voting,0,0,,,,,,
1174,TC-Early Voting ADA,0,0,,,,,,
1174,TC-Precinct,0,0,,,,,,
1174,TC-Precinct ADA,0,0,,,,,,
1174,TC-Provisional,0,0,,,,,,
1174,Total,0,0,,,,,,
1176,TC-Absentee,0,0,,,,,,
1176,TC-Early Voting,0,0,,,,,,
1176,TC-Early Voting ADA,0,0,,,,,,
1176,TC-Precinct,0,0,,,,,,
1176,TC-Precinct ADA,0,0,,,,,,
1176,TC-Provisional,0,0,,,,,,
1176,Total,0,0,,,,,,
1178,TC-Absentee,0,0,,,,,,
1178,TC-Early Voting,0,0,,,,,,
1178,TC-Early Voting ADA,0,0,,,,,,
1178,TC-Precinct,0,0,,,,,,
1178,TC-Precinct ADA,0,0,,,,,,
1178,TC-Provisional,0,0,,,,,,
1178,Total,0,0,,,,,,
1180,TC-Absentee,0,0,,,,,,
1180,TC-Early Voting,0,0,,,,,,
1180,TC-Early Voting ADA,0,0,,,,,,
1180,TC-Precinct,0,0,,,,,,
1180,TC-Precinct ADA,0,0,,,,,,
1180,TC-Provisional,0,0,,,,,,
1180,Total,0,0,,,,,,
1186,TC-Absentee,1428,73,7,39,19,6,,2
1186,TC-Early Voting,1428,0,,,,,,
1186,TC-Early Voting ADA,1428,0,,,,,,
1186,TC-Precinct,1428,165,13,88,42,18,,4
1186,TC-Precinct ADA,1428,0,,,,,,
1186,TC-Provisional,1428,0,,,,,,
1186,Total,1428,238,20,127,61,24,,6
1188,TC-Absentee,867,8,1,2,5,,,
1188,TC-Early Voting,867,0,,,,,,
1188,TC-Early Voting ADA,867,0,,,,,,
1188,TC-Precinct,867,60,12,20,18,10,,
1188,TC-Precinct ADA,867,0,,,,,,
1188,TC-Provisional,867,0,,,,,,
1188,Total,867,68,13,22,23,10,,
1189,TC-Absentee,73,10,,2,8,,,
1189,TC-Early Voting,73,0,,,,,,
1189,TC-Early Voting ADA,73,0,,,,,,
1189,TC-Precinct,73,5,,,5,,,
1189,TC-Precinct ADA,73,0,,,,,,
1189,TC-Provisional,73,0,,,,,,
1189,Total,73,15,,2,13,,,
1190,TC-Absentee,3158,119,22,32,53,8,,4
1190,TC-Early Voting,3158,0,,,,,,
1190,TC-Early Voting ADA,3158,0,,,,,,
1190,TC-Precinct,3158,227,10,87,100,23,,7
1190,TC-Precinct ADA,3158,0,,,,,,
1190,TC-Provisional,3158,0,,,,,,
1190,Total,3158,346,32,119,153,31,,11
1192,TC-Absentee,1474,32,3,5,9,15,,
1192,TC-Early Voting,1474,0,,,,,,
1192,TC-Early Voting ADA,1474,0,,,,,,
1192,TC-Precinct,1474,155,7,65,64,13,,6
1192,TC-Precinct ADA,1474,0,,,,,,
1192,TC-Provisional,1474,0,,,,,,
1192,Total,1474,187,10,70,73,28,,6
1194,TC-Absentee,2024,173,25,44,35,43,,26
1194,TC-Early Voting,2024,0,,,,,,
1194,TC-Early Voting ADA,2024,0,,,,,,
1194,TC-Precinct,2024,444,28,141,97,153,,25
1194,TC-Precinct ADA,2024,0,,,,,,
1194,TC-Provisional,2024,3,,1,,2,,
1194,Total,2024,620,53,186,132,198,,51
1196,TC-Absentee,0,0,,,,,,
1196,TC-Early Voting,0,0,,,,,,
1196,TC-Early Voting ADA,0,0,,,,,,
1196,TC-Precinct,0,0,,,,,,
1196,TC-Precinct ADA,0,0,,,,,,
1196,TC-Provisional,0,0,,,,,,
1196,Total,0,0,,,,,,
1222,TC-Absentee,0,0,,,,,,
1222,TC-Early Voting,0,0,,,,,,
1222,TC-Early Voting ADA,0,0,,,,,,
1222,TC-Precinct,0,0,,,,,,
1222,TC-Precinct ADA,0,0,,,,,,
1222,TC-Provisional,0,0,,,,,,
1222,Total,0,0,,,,,,
1226,TC-Absentee,0,0,,,,,,
1226,TC-Early Voting,0,0,,,,,,
1226,TC-Early Voting ADA,0,0,,,,,,
1226,TC-Precinct,0,0,,,,,,
1226,TC-Precinct ADA,0,0,,,,,,
1226,TC-Provisional,0,0,,,,,,
1226,Total,0,0,,,,,,
1230,TC-Absentee,0,0,,,,,,
1230,TC-Early Voting,0,0,,,,,,
1230,TC-Early Voting ADA,0,0,,,,,,
1230,TC-Precinct,0,0,,,,,,
1230,TC-Precinct ADA,0,0,,,,,,
1230,TC-Provisional,0,0,,,,,,
1230,Total,0,0,,,,,,
1232,TC-Absentee,0,0,,,,,,
1232,TC-Early Voting,0,0,,,,,,
1232,TC-Early Voting ADA,0,0,,,,,,
1232,TC-Precinct,0,0,,,,,,
1232,TC-Precinct ADA,0,0,,,,,,
1232,TC-Provisional,0,0,,,,,,
1232,Total,0,0,,,,,,
1234,TC-Absentee,0,0,,,,,,
1234,TC-Early Voting,0,0,,,,,,
1234,TC-Early Voting ADA,0,0,,,,,,
1234,TC-Precinct,0,0,,,,,,
1234,TC-Precinct ADA,0,0,,,,,,
1234,TC-Provisional,0,0,,,,,,
1234,Total,0,0,,,,,,
1236,TC-Absentee,0,0,,,,,,
1236,TC-Early Voting,0,0,,,,,,
1236,TC-Early Voting ADA,0,0,,,,,,
1236,TC-Precinct,0,0,,,,,,
1236,TC-Precinct ADA,0,0,,,,,,
1236,TC-Provisional,0,0,,,,,,
1236,Total,0,0,,,,,,
1238,TC-Absentee,1668,68,4,25,25,13,,1
1238,TC-Early Voting,1668,0,,,,,,
1238,TC-Early Voting ADA,1668,0,,,,,,
1238,TC-Precinct,1668,280,13,136,79,41,,11
1238,TC-Precinct ADA,1668,0,,,,,,
1238,TC-Provisional,1668,0,,,,,,
1238,Total,1668,348,17,161,104,54,,12
1240,TC-Absentee,2483,178,8,95,52,20,,3
1240,TC-Early Voting,2483,0,,,,,,
1240,TC-Early Voting ADA,2483,0,,,,,,
1240,TC-Precinct,2483,226,9,111,80,23,,3
1240,TC-Precinct ADA,2483,0,,,,,,
1240,TC-Provisional,2483,0,,,,,,
1240,Total,2483,404,17,206,132,43,,6
1242,TC-Absentee,2488,254,11,105,86,38,,14
1242,TC-Early Voting,2488,0,,,,,,
1242,TC-Early Voting ADA,2488,0,,,,,,
1242,TC-Precinct,2488,277,14,137,83,39,,4
1242,TC-Precinct ADA,2488,0,,,,,,
1242,TC-Provisional,2488,0,,,,,,
1242,Total,2488,531,25,242,169,77,,18
1244,TC-Absentee,1539,90,4,30,47,7,,2
1244,TC-Early Voting,1539,0,,,,,,
1244,TC-Early Voting ADA,1539,0,,,,,,
1244,TC-Precinct,1539,164,13,74,63,13,,1
1244,TC-Precinct ADA,1539,0,,,,,,
1244,TC-Provisional,1539,0,,,,,,
1244,Total,1539,254,17,104,110,20,,3
1246,TC-Absentee,2377,107,14,29,49,14,,1
1246,TC-Early Voting,2377,0,,,,,,
1246,TC-Early Voting ADA,2377,0,,,,,,
1246,TC-Precinct,2377,198,45,82,48,21,,2
1246,TC-Precinct ADA,2377,0,,,,,,
1246,TC-Provisional,2377,0,,,,,,
1246,Total,2377,305,59,111,97,35,,3
1247,TC-Absentee,221,33,,2,26,5,,
1247,TC-Early Voting,221,0,,,,,,
1247,TC-Early Voting ADA,221,0,,,,,,
1247,TC-Precinct,221,18,,1,14,3,,
1247,TC-Precinct ADA,221,0,,,,,,
1247,TC-Provisional,221,0,,,,,,
1247,Total,221,51,,3,40,8,,
1248,TC-Absentee,1488,92,7,30,41,14,,
1248,TC-Early Voting,1488,0,,,,,,
1248,TC-Early Voting ADA,1488,0,,,,,,
1248,TC-Precinct,1488,167,24,74,48,21,,
1248,TC-Precinct ADA,1488,0,,,,,,
1248,TC-Provisional,1488,0,,,,,,
1248,Total,1488,259,31,104,89,35,,
1250,TC-Absentee,61,4,,2,,2,,
1250,TC-Early Voting,61,0,,,,,,
1250,TC-Early Voting ADA,61,0,,,,,,
1250,TC-Precinct,61,10,2,4,2,2,,
1250,TC-Precinct ADA,61,0,,,,,,
1250,TC-Provisional,61,0,,,,,,
1250,Total,61,14,2,6,2,4,,
1252,TC-Absentee,2349,199,3,44,72,78,,2
1252,TC-Early Voting,2349,0,,,,,,
1252,TC-Early Voting ADA,2349,0,,,,,,
1252,TC-Precinct,2349,809,8,128,235,435,,3
1252,TC-Precinct ADA,2349,0,,,,,,
1252,TC-Provisional,2349,2,,,,2,,
1252,Total,2349,1010,11,172,307,515,,5
1254,TC-Absentee,454,16,4,6,2,3,,1
1254,TC-Early Voting,454,0,,,,,,
1254,TC-Early Voting ADA,454,0,,,,,,
1254,TC-Precinct,454,50,,24,19,7,,
1254,TC-Precinct ADA,454,0,,,,,,
1254,TC-Provisional,454,0,,,,,,
1254,Total,454,66,4,30,21,10,,1
1260,TC-Absentee,1320,85,25,27,27,6,,
1260,TC-Early Voting,1320,0,,,,,,
1260,TC-Early Voting ADA,1320,0,,,,,,
1260,TC-Precinct,1320,101,17,42,31,10,,1
1260,TC-Precinct ADA,1320,0,,,,,,
1260,TC-Provisional,1320,0,,,,,,
1260,Total,1320,186,42,69,58,16,,1
1262,TC-Absentee,0,0,,,,,,
1262,TC-Early Voting,0,0,,,,,,
1262,TC-Early Voting ADA,0,0,,,,,,
1262,TC-Precinct,0,0,,,,,,
1262,TC-Precinct ADA,0,0,,,,,,
1262,TC-Provisional,0,0,,,,,,
1262,Total,0,0,,,,,,
1264,TC-Absentee,1,0,,,,,,
1264,TC-Early Voting,1,0,,,,,,
1264,TC-Early Voting ADA,1,0,,,,,,
1264,TC-Precinct,1,0,,,,,,
1264,TC-Precinct ADA,1,0,,,,,,
1264,TC-Provisional,1,0,,,,,,
1264,Total,1,0,,,,,,
1266,TC-Absentee,479,3,,,3,,,
1266,TC-Early Voting,479,0,,,,,,
1266,TC-Early Voting ADA,479,0,,,,,,
1266,TC-Precinct,479,2,,,1,1,,
1266,TC-Precinct ADA,479,0,,,,,,
1266,TC-Provisional,479,0,,,,,,
1266,Total,479,5,,,4,1,,
1268,TC-Absentee,294,4,,1,1,2,,
1268,TC-Early Voting,294,0,,,,,,
1268,TC-Early Voting ADA,294,0,,,,,,
1268,TC-Precinct,294,7,1,1,2,3,,
1268,TC-Precinct ADA,294,0,,,,,,
1268,TC-Provisional,294,0,,,,,,
1268,Total,294,11,1,2,3,5,,
1270,TC-Absentee,8,0,,,,,,
1270,TC-Early Voting,8,0,,,,,,
1270,TC-Early Voting ADA,8,0,,,,,,
1270,TC-Precinct,8,0,,,,,,
1270,TC-Precinct ADA,8,0,,,,,,
1270,TC-Provisional,8,0,,,,,,
1270,Total,8,0,,,,,,
1272,TC-Absentee,1912,73,18,19,31,4,,1
1272,TC-Early Voting,1912,0,,,,,,
1272,TC-Early Voting ADA,1912,0,,,,,,
1272,TC-Precinct,1912,183,54,57,53,18,,1
1272,TC-Precinct ADA,1912,0,,,,,,
1272,TC-Provisional,1912,0,,,,,,
1272,Total,1912,256,72,76,84,22,,2
1274,TC-Absentee,1590,77,5,24,37,10,,1
1274,TC-Early Voting,1590,0,,,,,,
1274,TC-Early Voting ADA,1590,0,,,,,,
1274,TC-Precinct,1590,160,32,47,73,5,,3
1274,TC-Precinct ADA,1590,0,,,,,,
1274,TC-Provisional,1590,0,,,,,,
1274,Total,1590,237,37,71,110,15,,4
1280,TC-Absentee,396,16,1,8,5,2,,
1280,TC-Early Voting,396,0,,,,,,
1280,TC-Early Voting ADA,396,0,,,,,,
1280,TC-Precinct,396,31,6,11,9,3,,2
1280,TC-Precinct ADA,396,0,,,,,,
1280,TC-Provisional,396,0,,,,,,
1280,Total,396,47,7,19,14,5,,2
1284,TC-Absentee,2287,108,6,49,35,14,,4
1284,TC-Early Voting,2287,0,,,,,,
1284,TC-Early Voting ADA,2287,0,,,,,,
1284,TC-Precinct,2287,76,5,40,26,4,,1
1284,TC-Precinct ADA,2287,0,,,,,,
1284,TC-Provisional,2287,0,,,,,,
1284,Total,2287,184,11,89,61,18,,5
1288,TC-Absentee,37,1,,,,1,,
1288,TC-Early Voting,37,0,,,,,,
1288,TC-Early Voting ADA,37,0,,,,,,
1288,TC-Precinct,37,2,,,2,,,
1288,TC-Precinct ADA,37,0,,,,,,
1288,TC-Provisional,37,0,,,,,,
1288,Total,37,3,,,2,1,,
1290,TC-Absentee,2114,108,10,41,40,17,,
1290,TC-Early Voting,2114,0,,,,,,
1290,TC-Early Voting ADA,2114,0,,,,,,
1290,TC-Precinct,2114,150,11,66,53,15,,5
1290,TC-Precinct ADA,2114,0,,,,,,
1290,TC-Provisional,2114,0,,,,,,
1290,Total,2114,258,21,107,93,32,,5
1292,TC-Absentee,67,7,,1,4,1,,1
1292,TC-Early Voting,67,0,,,,,,
1292,TC-Early Voting ADA,67,0,,,,,,
1292,TC-Precinct,67,17,,4,11,,,2
1292,TC-Precinct ADA,67,0,,,,,,
1292,TC-Provisional,67,0,,,,,,
1292,Total,67,24,,5,15,1,,3
1296,TC-Absentee,733,36,12,16,7,1,,
1296,TC-Early Voting,733,0,,,,,,
1296,TC-Early Voting ADA,733,0,,,,,,
1296,TC-Precinct,733,9,,5,2,2,,
1296,TC-Precinct ADA,733,0,,,,,,
1296,TC-Provisional,733,0,,,,,,
1296,Total,733,45,12,21,9,3,,
1306,TC-Absentee,7,0,,,,,,
1306,TC-Early Voting,7,0,,,,,,
1306,TC-Early Voting ADA,7,0,,,,,,
1306,TC-Precinct,7,0,,,,,,
1306,TC-Precinct ADA,7,0,,,,,,
1306,TC-Provisional,7,0,,,,,,
1306,Total,7,0,,,,,,
1310,TC-Absentee,4,0,,,,,,
1310,TC-Early Voting,4,0,,,,,,
1310,TC-Early Voting ADA,4,0,,,,,,
1310,TC-Precinct,4,0,,,,,,
1310,TC-Precinct ADA,4,0,,,,,,
1310,TC-Provisional,4,0,,,,,,
1310,Total,4,0,,,,,,
1318,TC-Absentee,0,0,,,,,,
1318,TC-Early Voting,0,0,,,,,,
1318,TC-Early Voting ADA,0,0,,,,,,
1318,TC-Precinct,0,0,,,,,,
1318,TC-Precinct ADA,0,0,,,,,,
1318,TC-Provisional,0,0,,,,,,
1318,Total,0,0,,,,,,
1324,TC-Absentee,1287,50,3,9,30,7,,1
1324,TC-Early Voting,1287,0,,,,,,
1324,TC-Early Voting ADA,1287,0,,,,,,
1324,TC-Precinct,1287,32,7,10,14,1,,
1324,TC-Precinct ADA,1287,0,,,,,,
1324,TC-Provisional,1287,0,,,,,,
1324,Total,1287,82,10,19,44,8,,1
1326,TC-Absentee,553,13,1,9,2,1,,
1326,TC-Early Voting,553,0,,,,,,
1326,TC-Early Voting ADA,553,0,,,,,,
1326,TC-Precinct,553,66,7,32,25,2,,
1326,TC-Precinct ADA,553,0,,,,,,
1326,TC-Provisional,553,0,,,,,,
1326,Total,553,79,8,41,27,3,,
1340,TC-Absentee,11,1,,,1,,,
1340,TC-Early Voting,11,0,,,,,,
1340,TC-Early Voting ADA,11,0,,,,,,
1340,TC-Precinct,11,0,,,,,,
1340,TC-Precinct ADA,11,0,,,,,,
1340,TC-Provisional,11,0,,,,,,
1340,Total,11,1,,,1,,,
1352,TC-Absentee,2202,59,7,23,21,7,,1
1352,TC-Early Voting,2202,0,,,,,,
1352,TC-Early Voting ADA,2202,0,,,,,,
1352,TC-Precinct,2202,163,18,65,65,14,,1
1352,TC-Precinct ADA,2202,0,,,,,,
1352,TC-Provisional,2202,0,,,,,,
1352,Total,2202,222,25,88,86,21,,2
1360,TC-Absentee,882,53,8,20,13,12,,
1360,TC-Early Voting,882,0,,,,,,
1360,TC-Early Voting ADA,882,0,,,,,,
1360,TC-Precinct,882,63,10,21,24,8,,
1360,TC-Precinct ADA,882,0,,,,,,
1360,TC-Provisional,882,0,,,,,,
1360,Total,882,116,18,41,37,20,,
1372,TC-Absentee,156,1,,,1,,,
1372,TC-Early Voting,156,0,,,,,,
1372,TC-Early Voting ADA,156,0,,,,,,
1372,TC-Precinct,156,5,3,2,,,,
1372,TC-Precinct ADA,156,0,,,,,,
1372,TC-Provisional,156,0,,,,,,
1372,Total,156,6,3,2,1,,,
